{
    "android": {
        "Review": {
            "LaunchLimit": 3,
            "DayForReminding": 1,
            "tryPromptWhenInit": false,
            "DayLimit": 0,
            "LaunchForReminding": 2,
            "UserEventLimit": 0
        },
        "sdkboxplay": {
          "leaderboards": [
            {
              "id": "CgkIwr2u1KcNEAIQBw",
              "name": "Hall of Fame"
            }
          ],
          "achievements": [
            {
              "name" : "Reassurance",
              "id" : "CgkIwr2u1KcNEAIQBQ",
              "incremental" : false
            },
            {
              "name" : "Stars path",
              "id" : "CgkIwr2u1KcNEAIQAQ",
              "incremental" : false
            },
            {
              "name" : "Darkaround",
              "id" : "CgkIwr2u1KcNEAIQAw",
              "incremental" : false
            },
            {
              "name" : "Ultraspeeed",
              "id" : "CgkIwr2u1KcNEAIQAg",
              "incremental" : false
            },
            {
              "name" : "Almost there",
              "id" : "CgkIwr2u1KcNEAIQBA",
              "incremental" : false
            }
          ],
          "connect_on_start" : true,
          "debug" : false
        },
        "Appodeal": {
            "app_key": "0a132e3d2a4c3181b9567896a8489bef68a410cca7aba5a0"
        }
    },
    "ios": {
        "Review": {
            "LaunchLimit": 3,
            "DayForReminding": 1,
            "tryPromptWhenInit": true,
            "AppID": "587767923",
            "DayLimit": 0,
            "LaunchForReminding": 2,
            "UserEventLimit": 0
        },
        "sdkboxplay": {
            "leaderboards": [
                {
                    "name": "ldb1",
                    "id": "ldb1"
                },
                {
                    "name": "ldb2",
                    "id": "ldb2"
                }
            ],
            "achievements": [
                {
                    "incremental": false,
                    "name": "ten-games",
                    "id": "tengames"
                },
                {
                    "incremental": false,
                    "name": "hunter",
                    "id": "hunter"
                },
                {
                    "incremental": false,
                    "name": "craftsman",
                    "id": "craftsman"
                },
                {
                    "incremental": true,
                    "name": "incremental",
                    "id": "incremental"
                }
            ],
            "connect_on_start": true,
            "debug": true
        },
        "Appodeal": {
            "app_key": "0a132e3d2a4c3181b9567896a8489bef68a410cca7aba5a0"
        }
    }
}
